uP_tb.vcd
$date
	Sun Nov 22 23:27:34 2020
$end
$version
	Icarus Verilog
$end
$timescale
	1ps
$end
$scope module testbench $end
$var wire 4 ! data_bus [3:0] $end
$var wire 1 " z_flag $end
$var wire 8 # program_byte [7:0] $end
$var wire 1 $ phase $end
$var wire 4 % oprnd [3:0] $end
$var wire 4 & instr [3:0] $end
$var wire 1 ' c_flag $end
$var wire 12 ( address_RAM [11:0] $end
$var wire 4 ) accu [3:0] $end
$var wire 12 * PC [11:0] $end
$var wire 4 + FF_out [3:0] $end
$var reg 1 , clock $end
$var reg 4 - pushbuttons [3:0] $end
$var reg 1 . reset $end
$var integer 32 / immediateDelay [31:0] $end
$var integer 32 0 jumpDelay [31:0] $end
$var integer 32 1 memoryDelay [31:0] $end
$var integer 32 2 nota [31:0] $end
$scope module uPmodule $end
$var wire 1 , clock $end
$var wire 4 3 data_bus [3:0] $end
$var wire 4 4 pushbuttons [3:0] $end
$var wire 1 . reset $end
$var wire 1 " z_flag $end
$var wire 1 5 z $end
$var wire 1 6 weRAM $end
$var wire 13 7 signals [12:0] $end
$var wire 3 8 s [2:0] $end
$var wire 8 9 program_byte [7:0] $end
$var wire 1 $ phase $end
$var wire 4 : oprnd [3:0] $end
$var wire 1 ; oeOprnd $end
$var wire 1 < oeIn $end
$var wire 1 = oeALU $end
$var wire 1 > loadPC $end
$var wire 1 ? loadOut $end
$var wire 1 @ loadFlags $end
$var wire 1 A loadA $end
$var wire 4 B instr [3:0] $end
$var wire 1 C incPC $end
$var wire 1 D csRAM $end
$var wire 1 ' c_flag $end
$var wire 1 E c $end
$var wire 12 F address_RAM [11:0] $end
$var wire 4 G accu [3:0] $end
$var wire 12 H PC [11:0] $end
$var wire 4 I FF_out [3:0] $end
$var wire 4 J ALUOut [3:0] $end
$scope module Control_I0 $end
$var wire 1 , clk $end
$var wire 12 K count [11:0] $end
$var wire 1 C eneable_counter $end
$var wire 1 L eneable_fetch $end
$var wire 1 > load $end
$var wire 1 . reset $end
$var wire 12 M valor [11:0] $end
$var wire 8 N prog_b [7:0] $end
$var wire 4 O oprnd [3:0] $end
$var wire 4 P instr [3:0] $end
$var wire 12 Q count_w [11:0] $end
$scope module c0 $end
$var wire 12 R b [11:0] $end
$var wire 1 , clk $end
$var wire 1 C eneable $end
$var wire 1 > load $end
$var wire 1 . reset $end
$var reg 12 S c [11:0] $end
$upscope $end
$scope module f0 $end
$var wire 1 , clk2 $end
$var wire 1 L eneable2 $end
$var wire 1 . reset2 $end
$var wire 4 T op [3:0] $end
$var wire 4 U ins [3:0] $end
$var wire 8 V D [7:0] $end
$scope module ff1 $end
$var wire 4 W D2 [3:0] $end
$var wire 1 , clk2 $end
$var wire 1 L eneable2 $end
$var wire 1 . reset2 $end
$var reg 4 X Q2 [3:0] $end
$upscope $end
$scope module ff2 $end
$var wire 4 Y D2 [3:0] $end
$var wire 1 , clk2 $end
$var wire 1 L eneable2 $end
$var wire 1 . reset2 $end
$var reg 4 Z Q2 [3:0] $end
$upscope $end
$upscope $end
$scope module r0 $end
$var wire 8 [ dato [7:0] $end
$var wire 12 \ direccion [11:0] $end
$upscope $end
$upscope $end
$scope module Control_S1 $end
$var wire 1 , clk $end
$var wire 1 @ eneable $end
$var wire 4 ] instr [3:0] $end
$var wire 1 . reset $end
$var wire 1 5 zero $end
$var wire 13 ^ signal [12:0] $end
$var wire 1 $ p $end
$var wire 2 _ f [1:0] $end
$var wire 7 ` control [6:0] $end
$var wire 1 E carry $end
$scope module d0 $end
$var wire 7 a direccion [6:0] $end
$var reg 13 b valor [12:0] $end
$upscope $end
$scope module f1 $end
$var wire 1 , clk2 $end
$var wire 1 @ eneable2 $end
$var wire 1 . reset2 $end
$var wire 1 5 Zero $end
$var wire 1 E Carry $end
$var reg 2 c flag [1:0] $end
$upscope $end
$scope module p0 $end
$var wire 1 , clk3 $end
$var wire 1 d eneable3 $end
$var wire 1 . reset3 $end
$var wire 1 $ Q $end
$scope module f0 $end
$var wire 1 e D1 $end
$var wire 1 , clk1 $end
$var wire 1 d eneable1 $end
$var wire 1 . reset1 $end
$var reg 1 $ Q1 $end
$upscope $end
$upscope $end
$upscope $end
$scope module FF0 $end
$var wire 4 f D2 [3:0] $end
$var wire 1 , clk2 $end
$var wire 1 ? eneable2 $end
$var wire 1 . reset2 $end
$var reg 4 g Q2 [3:0] $end
$upscope $end
$scope module M0 $end
$var wire 1 D cs $end
$var wire 4 h data [3:0] $end
$var wire 12 i direccion [11:0] $end
$var wire 1 6 we $end
$var reg 4 j valor [3:0] $end
$upscope $end
$scope module Op0 $end
$var wire 4 k DataIn [3:0] $end
$var wire 3 l Select [2:0] $end
$var wire 1 , clk $end
$var wire 1 A enACU $end
$var wire 1 . reset $end
$var wire 1 5 Z $end
$var wire 4 m DataOut [3:0] $end
$var wire 1 E C $end
$var wire 4 n Accu [3:0] $end
$scope module a0 $end
$var wire 4 o B [3:0] $end
$var wire 3 p Select [2:0] $end
$var wire 1 5 Zero $end
$var wire 4 q Y [3:0] $end
$var wire 1 E Carry $end
$var wire 4 r A [3:0] $end
$var reg 5 s Oprnd [4:0] $end
$upscope $end
$scope module a1 $end
$var wire 4 t D4 [3:0] $end
$var wire 1 , clk4 $end
$var wire 1 A eneable4 $end
$var wire 1 . reset4 $end
$var reg 4 u Q4 [3:0] $end
$upscope $end
$upscope $end
$scope module bus_driver0 $end
$var wire 1 ; Eneable $end
$var wire 4 v I [3:0] $end
$var wire 4 w Y [3:0] $end
$upscope $end
$scope module bus_driver1 $end
$var wire 1 < Eneable $end
$var wire 4 x I [3:0] $end
$var wire 4 y Y [3:0] $end
$upscope $end
$scope module bus_driver2 $end
$var wire 1 = Eneable $end
$var wire 4 z I [3:0] $end
$var wire 4 { Y [3:0] $end
$upscope $end
$upscope $end
$upscope $end
$enddefinitions $end
#0
$dumpvars
bx {
bx z
bx y
b110 x
bx w
bx v
bx u
bx t
bx s
bx r
bx q
bx p
bx o
bx n
bx m
bx l
bx k
bx j
bx i
bx h
bx g
bx f
xe
1d
bx c
bx b
bx a
bx `
bx _
bx ^
bx ]
bx \
bx [
bx Z
bx Y
bx X
bx W
bx V
bx U
bx T
bx S
bx R
bx Q
bx P
bx O
bx N
bx M
xL
bx K
bx J
bx I
bx H
bx G
bx F
xE
xD
xC
bx B
xA
x@
x?
x>
x=
x<
x;
bx :
bx 9
bx 8
bx 7
x6
x5
b110 4
bx 3
b0 2
b100010100 1
b1010010000 0
b10000 /
0.
b110 -
0,
bx +
bx *
bx )
bx (
x'
bx &
bx %
x$
bx #
x"
bx !
$end
#2
15
b0 !
b0 3
b0 f
b0 h
b0 k
b0 o
b0 w
b0 y
b0 {
0E
b0 J
b0 m
b0 q
b0 t
b0 z
b0 s
1C
0>
0A
0@
b0 8
b0 l
b0 p
0D
06
1=
0<
0;
0?
b100 Y
b1111 W
0'
0"
b1000000001000 7
b1000000001000 ^
b1000000001000 b
b1001111 #
b1001111 9
b1001111 N
b1001111 V
b1001111 [
b0 *
b0 H
b0 K
b0 Q
b0 S
b0 \
b1001111 (
b1001111 F
b1001111 M
b1001111 R
b1001111 i
b0 %
b0 :
b0 O
b0 T
b0 X
b0 v
b0 &
b0 B
b0 P
b0 U
b0 Z
b0 ]
b0 _
b0 c
b0 )
b0 G
b0 n
b0 r
b0 u
b0 +
b0 I
b0 g
1e
1L
b0 `
b0 a
0$
1.
#3
0.
#5
05
b1111 J
b1111 m
b1111 q
b1111 t
b1111 z
b1111 s
b1111 !
b1111 3
b1111 f
b1111 h
b1111 k
b1111 o
b1111 w
b1111 y
b1111 {
0C
1A
1@
b10 8
b10 l
b10 p
0=
1;
b11010000010 7
b11010000010 ^
b11010000010 b
b100 &
b100 B
b100 P
b100 U
b100 Z
b100 ]
b1111 %
b1111 :
b1111 O
b1111 T
b1111 X
b1111 v
0e
0L
b1101 Y
b100001 `
b100001 a
1$
b111111011111 (
b111111011111 F
b111111011111 M
b111111011111 R
b111111011111 i
b11011111 #
b11011111 9
b11011111 N
b11011111 V
b11011111 [
b1 *
b1 H
b1 K
b1 Q
b1 S
b1 \
1,
#10
0,
#15
b1111 !
b1111 3
b1111 f
b1111 h
b1111 k
b1111 o
b1111 w
b1111 y
b1111 {
1C
0A
0@
b0 8
b0 l
b0 p
1=
0;
b1000000001000 7
b1000000001000 ^
b1000000001000 b
b1111 )
b1111 G
b1111 n
b1111 r
b1111 u
1e
1L
b100000 `
b100000 a
0$
1,
#16
b1000110 2
#20
0,
#25
b1111 !
b1111 3
b1111 f
b1111 h
b1111 k
b1111 o
b1111 w
b1111 y
b1111 {
1?
0C
0A
0@
b0 8
b0 l
b0 p
1=
0;
b1001 7
b1001 ^
b1001 b
b1101 &
b1101 B
b1101 P
b1101 U
b1101 Z
b1101 ]
0e
0L
b101 Y
b1 W
b1101001 `
b1101001 a
1$
b111101010001 (
b111101010001 F
b111101010001 M
b111101010001 R
b111101010001 i
b1010001 #
b1010001 9
b1010001 N
b1010001 V
b1010001 [
b10 *
b10 H
b10 K
b10 Q
b10 S
b10 \
1,
#30
0,
#35
1C
0?
b1000000001000 7
b1000000001000 ^
b1000000001000 b
b1111 +
b1111 I
b1111 g
1e
1L
b1101000 `
b1101000 a
0$
1,
#36
b1100111 2
#40
0,
#45
b110 J
b110 m
b110 q
b110 t
b110 z
b110 s
b110 !
b110 3
b110 f
b110 h
b110 k
b110 o
b110 w
b110 y
b110 {
1A
1@
b10 8
b10 l
b10 p
0=
1<
0C
0?
b11010000100 7
b11010000100 ^
b11010000100 b
b101 &
b101 B
b101 P
b101 U
b101 Z
b101 ]
b1 %
b1 :
b1 O
b1 T
b1 X
b1 v
0e
0L
b100 Y
b0 W
b101001 `
b101001 a
1$
b101000000 (
b101000000 F
b101000000 M
b101000000 R
b101000000 i
b1000000 #
b1000000 9
b1000000 N
b1000000 V
b1000000 [
b11 *
b11 H
b11 K
b11 Q
b11 S
b11 \
1,
#50
0,
#55
b110 !
b110 3
b110 f
b110 h
b110 k
b110 o
b110 w
b110 y
b110 {
1C
0A
0@
b0 8
b0 l
b0 p
1=
0<
b1000000001000 7
b1000000001000 ^
b1000000001000 b
b110 )
b110 G
b110 n
b110 r
b110 u
1e
1L
b101000 `
b101000 a
0$
1,
#56
b10001000 2
#60
0,
#65
15
b0 J
b0 m
b0 q
b0 t
b0 z
b0 s
b0 !
b0 3
b0 f
b0 h
b0 k
b0 o
b0 w
b0 y
b0 {
1;
0C
1A
1@
b10 8
b10 l
b10 p
0=
0<
b11010000010 7
b11010000010 ^
b11010000010 b
b100 &
b100 B
b100 P
b100 U
b100 Z
b100 ]
b0 %
b0 :
b0 O
b0 T
b0 X
b0 v
0e
0L
b1111 W
b100001 `
b100001 a
1$
b1001111 (
b1001111 F
b1001111 M
b1001111 R
b1001111 i
b1001111 #
b1001111 9
b1001111 N
b1001111 V
b1001111 [
b100 *
b100 H
b100 K
b100 Q
b100 S
b100 \
1,
#70
0,
#75
b0 !
b0 3
b0 f
b0 h
b0 k
b0 o
b0 w
b0 y
b0 {
1C
0A
0@
b0 8
b0 l
b0 p
1=
0;
1"
b1000000001000 7
b1000000001000 ^
b1000000001000 b
b1 _
b1 c
b0 )
b0 G
b0 n
b0 r
b0 u
1e
1L
b100010 `
b100010 a
0$
1,
#80
0,
#85
05
b1111 J
b1111 m
b1111 q
b1111 t
b1111 z
b1111 s
b1111 !
b1111 3
b1111 f
b1111 h
b1111 k
b1111 o
b1111 w
b1111 y
b1111 {
0C
1A
1@
b10 8
b10 l
b10 p
0=
1;
b11010000010 7
b11010000010 ^
b11010000010 b
b1111 %
b1111 :
b1111 O
b1111 T
b1111 X
b1111 v
0e
0L
b1010 Y
b1010 W
b100011 `
b100011 a
1$
b111110101010 (
b111110101010 F
b111110101010 M
b111110101010 R
b111110101010 i
b10101010 #
b10101010 9
b10101010 N
b10101010 V
b10101010 [
b101 *
b101 H
b101 K
b101 Q
b101 S
b101 \
1,
#90
0,
#95
b1111 !
b1111 3
b1111 f
b1111 h
b1111 k
b1111 o
b1111 w
b1111 y
b1111 {
1C
0A
0@
b0 8
b0 l
b0 p
1=
0;
0"
b1000000001000 7
b1000000001000 ^
b1000000001000 b
b0 _
b0 c
b1111 )
b1111 G
b1111 n
b1111 r
b1111 u
1e
1L
b100000 `
b100000 a
0$
1,
#100
0,
#105
1E
b1001 J
b1001 m
b1001 q
b1001 t
b1001 z
b11001 s
b1010 !
b1010 3
b1010 f
b1010 h
b1010 k
b1010 o
b1010 w
b1010 y
b1010 {
0C
1A
1@
b11 8
b11 l
b11 p
0=
1;
b11011000010 7
b11011000010 ^
b11011000010 b
b1010 &
b1010 B
b1010 P
b1010 U
b1010 Z
b1010 ]
b1010 %
b1010 :
b1010 O
b1010 T
b1010 X
b1010 v
0e
0L
b10 Y
b1000 W
b1010001 `
b1010001 a
1$
b101000101000 (
b101000101000 F
b101000101000 M
b101000101000 R
b101000101000 i
b101000 #
b101000 9
b101000 N
b101000 V
b101000 [
b110 *
b110 H
b110 K
b110 Q
b110 S
b110 \
1,
#110
0,
#115
0E
b1001 s
b1001 !
b1001 3
b1001 f
b1001 h
b1001 k
b1001 o
b1001 w
b1001 y
b1001 {
1C
0A
0@
b0 8
b0 l
b0 p
1=
0;
1'
b1000000001000 7
b1000000001000 ^
b1000000001000 b
b10 _
b10 c
b1001 )
b1001 G
b1001 n
b1001 r
b1001 u
1e
1L
b1010100 `
b1010100 a
0$
1,
#116
b10101001 2
#120
0,
#125
0E
b1 J
b1 m
b1 q
b1 t
b1 z
b1 s
b1000 !
b1000 3
b1000 f
b1000 h
b1000 k
b1000 o
b1000 w
b1000 y
b1000 {
0C
0A
1@
b1 8
b1 l
b1 p
0=
1;
b1001000010 7
b1001000010 ^
b1001000010 b
b10 &
b10 B
b10 P
b10 U
b10 Z
b10 ]
b1000 %
b1000 :
b1000 O
b1000 T
b1000 X
b1000 v
0e
0L
b100 Y
b1010 W
b10101 `
b10101 a
1$
b100001001010 (
b100001001010 F
b100001001010 M
b100001001010 R
b100001001010 i
b1001010 #
b1001010 9
b1001010 N
b1001010 V
b1001010 [
b111 *
b111 H
b111 K
b111 Q
b111 S
b111 \
1,
#130
0,
#135
b1001 J
b1001 m
b1001 q
b1001 t
b1001 z
b1001 s
b1001 !
b1001 3
b1001 f
b1001 h
b1001 k
b1001 o
b1001 w
b1001 y
b1001 {
1C
0@
b0 8
b0 l
b0 p
1=
0;
0'
b1000000001000 7
b1000000001000 ^
b1000000001000 b
b0 _
b0 c
1e
1L
b10000 `
b10000 a
0$
1,
#136
b11001010 2
#140
0,
#145
0E
b1010 J
b1010 m
b1010 q
b1010 t
b1010 z
1A
b1010 s
b1010 !
b1010 3
b1010 f
b1010 h
b1010 k
b1010 o
b1010 w
b1010 y
b1010 {
0C
1@
b10 8
b10 l
b10 p
0=
1;
b11010000010 7
b11010000010 ^
b11010000010 b
b100 &
b100 B
b100 P
b100 U
b100 Z
b100 ]
b1010 %
b1010 :
b1010 O
b1010 T
b1010 X
b1010 v
0e
0L
b10 Y
b1100 W
b100001 `
b100001 a
1$
b101000101100 (
b101000101100 F
b101000101100 M
b101000101100 R
b101000101100 i
b101100 #
b101100 9
b101100 N
b101100 V
b101100 [
b1000 *
b1000 H
b1000 K
b1000 Q
b1000 S
b1000 \
1,
#150
0,
#155
b1010 !
b1010 3
b1010 f
b1010 h
b1010 k
b1010 o
b1010 w
b1010 y
b1010 {
1C
0A
0@
b0 8
b0 l
b0 p
1=
0;
b1000000001000 7
b1000000001000 ^
b1000000001000 b
b1010 )
b1010 G
b1010 n
b1010 r
b1010 u
1e
1L
b100000 `
b100000 a
0$
1,
#160
0,
#165
1E
b1110 J
b1110 m
b1110 q
b1110 t
b1110 z
b11110 s
b1100 !
b1100 3
b1100 f
b1100 h
b1100 k
b1100 o
b1100 w
b1100 y
b1100 {
0C
0A
1@
b1 8
b1 l
b1 p
0=
1;
b1001000010 7
b1001000010 ^
b1001000010 b
b10 &
b10 B
b10 P
b10 U
b10 Z
b10 ]
b1100 %
b1100 :
b1100 O
b1100 T
b1100 X
b1100 v
0e
0L
b1010 Y
b1 W
b10001 `
b10001 a
1$
b110010100001 (
b110010100001 F
b110010100001 M
b110010100001 R
b110010100001 i
b10100001 #
b10100001 9
b10100001 N
b10100001 V
b10100001 [
b1001 *
b1001 H
b1001 K
b1001 Q
b1001 S
b1001 \
1,
#170
0,
#175
0E
b1010 J
b1010 m
b1010 q
b1010 t
b1010 z
b1010 s
b1010 !
b1010 3
b1010 f
b1010 h
b1010 k
b1010 o
b1010 w
b1010 y
b1010 {
1C
0@
b0 8
b0 l
b0 p
1=
0;
1'
b1000000001000 7
b1000000001000 ^
b1000000001000 b
b10 _
b10 c
1e
1L
b10100 `
b10100 a
0$
1,
#176
b11101011 2
#180
0,
#185
b1011 J
b1011 m
b1011 q
b1011 t
b1011 z
1A
b1011 s
b1 !
b1 3
b1 f
b1 h
b1 k
b1 o
b1 w
b1 y
b1 {
0C
1@
b11 8
b11 l
b11 p
0=
1;
b11011000010 7
b11011000010 ^
b11011000010 b
b1010 &
b1010 B
b1010 P
b1010 U
b1010 Z
b1010 ]
b1 %
b1 :
b1 O
b1 T
b1 X
b1 v
0e
0L
b1110 Y
b1011 W
b1010101 `
b1010101 a
1$
b111101011 (
b111101011 F
b111101011 M
b111101011 R
b111101011 i
b11101011 #
b11101011 9
b11101011 N
b11101011 V
b11101011 [
b1010 *
b1010 H
b1010 K
b1010 Q
b1010 S
b1010 \
1,
#190
0,
#195
b1011 s
b1011 !
b1011 3
b1011 f
b1011 h
b1011 k
b1011 o
b1011 w
b1011 y
b1011 {
1C
0A
0@
b0 8
b0 l
b0 p
1=
0;
0'
b1000000001000 7
b1000000001000 ^
b1000000001000 b
b0 _
b0 c
b1011 )
b1011 G
b1011 n
b1011 r
b1011 u
1e
1L
b1010000 `
b1010000 a
0$
1,
#196
b100001100 2
#200
0,
#205
0E
b100 J
b100 m
b100 q
b100 t
b100 z
b100 s
0C
1A
1@
b100 8
b100 l
b100 p
0=
1;
b11100000010 7
b11100000010 ^
b11100000010 b
b1110 &
b1110 B
b1110 P
b1110 U
b1110 Z
b1110 ]
b1011 %
b1011 :
b1011 O
b1011 T
b1011 X
b1011 v
0e
0L
b1101 Y
b0 W
b1110001 `
b1110001 a
1$
b101111010000 (
b101111010000 F
b101111010000 M
b101111010000 R
b101111010000 i
b11010000 #
b11010000 9
b11010000 N
b11010000 V
b11010000 [
b1011 *
b1011 H
b1011 K
b1011 Q
b1011 S
b1011 \
1,
#210
0,
#215
b100 s
b100 !
b100 3
b100 f
b100 h
b100 k
b100 o
b100 w
b100 y
b100 {
1C
0A
0@
b0 8
b0 l
b0 p
1=
0;
b1000000001000 7
b1000000001000 ^
b1000000001000 b
b100 )
b100 G
b100 n
b100 r
b100 u
1e
1L
b1110000 `
b1110000 a
0$
1,
#216
b101001110 2
#220
0,
#225
b100 J
b100 m
b100 q
b100 t
b100 z
1?
b100 s
b100 !
b100 3
b100 f
b100 h
b100 k
b100 o
b100 w
b100 y
b100 {
0C
0A
0@
b0 8
b0 l
b0 p
1=
0;
b1001 7
b1001 ^
b1001 b
b1101 &
b1101 B
b1101 P
b1101 U
b1101 Z
b1101 ]
b0 %
b0 :
b0 O
b0 T
b0 X
b0 v
0e
0L
b101 Y
b1101001 `
b1101001 a
1$
b1010000 (
b1010000 F
b1010000 M
b1010000 R
b1010000 i
b1010000 #
b1010000 9
b1010000 N
b1010000 V
b1010000 [
b1100 *
b1100 H
b1100 K
b1100 Q
b1100 S
b1100 \
1,
#230
0,
#235
1C
0?
b1000000001000 7
b1000000001000 ^
b1000000001000 b
b100 +
b100 I
b100 g
1e
1L
b1101000 `
b1101000 a
0$
1,
#236
b1110 -
b1110 4
b1110 x
b101101111 2
#240
0,
#245
b1110 J
b1110 m
b1110 q
b1110 t
b1110 z
b1110 s
b1110 !
b1110 3
b1110 f
b1110 h
b1110 k
b1110 o
b1110 w
b1110 y
b1110 {
1A
1@
b10 8
b10 l
b10 p
0=
1<
0C
0?
b11010000100 7
b11010000100 ^
b11010000100 b
b101 &
b101 B
b101 P
b101 U
b101 Z
b101 ]
0e
0L
b111 Y
b101001 `
b101001 a
1$
b1110000 (
b1110000 F
b1110000 M
b1110000 R
b1110000 i
b1110000 #
b1110000 9
b1110000 N
b1110000 V
b1110000 [
b1101 *
b1101 H
b1101 K
b1101 Q
b1101 S
b1101 \
1,
#250
0,
#255
b1110 !
b1110 3
b1110 f
b1110 h
b1110 k
b1110 o
b1110 w
b1110 y
b1110 {
1C
0A
0@
b0 8
b0 l
b0 p
1=
0<
b1000000001000 7
b1000000001000 ^
b1000000001000 b
b1110 )
b1110 G
b1110 n
b1110 r
b1110 u
1e
1L
b101000 `
b101000 a
0$
1,
#256
b110010000 2
#260
0,
#265
b1110 !
b1110 3
b1110 f
b1110 h
b1110 k
b1110 o
b1110 w
b1110 y
b1110 {
1D
16
1C
0A
0@
b0 8
b0 l
b0 p
1=
0<
b1000000111000 7
b1000000111000 ^
b1000000111000 b
b111 &
b111 B
b111 P
b111 U
b111 Z
b111 ]
0e
0L
b0 Y
b111001 `
b111001 a
1$
b0 (
b0 F
b0 M
b0 R
b0 i
b0 #
b0 9
b0 N
b0 V
b0 [
b1110 *
b1110 H
b1110 K
b1110 Q
b1110 S
b1110 \
1,
#270
0,
#275
0D
06
b1000000001000 7
b1000000001000 ^
b1000000001000 b
b100 Y
b1111 W
1e
1L
b1001111 (
b1001111 F
b1001111 M
b1001111 R
b1001111 i
b1001111 #
b1001111 9
b1001111 N
b1001111 V
b1001111 [
b1111 *
b1111 H
b1111 K
b1111 Q
b1111 S
b1111 \
b111000 `
b111000 a
0$
1,
#280
0,
#285
b1111 J
b1111 m
b1111 q
b1111 t
b1111 z
b1111 s
b1111 !
b1111 3
b1111 f
b1111 h
b1111 k
b1111 o
b1111 w
b1111 y
b1111 {
0C
1A
1@
b10 8
b10 l
b10 p
0=
1;
0D
06
b11010000010 7
b11010000010 ^
b11010000010 b
b100 &
b100 B
b100 P
b100 U
b100 Z
b100 ]
b1111 %
b1111 :
b1111 O
b1111 T
b1111 X
b1111 v
0e
0L
b111 Y
b1 W
b100001 `
b100001 a
1$
b111101110001 (
b111101110001 F
b111101110001 M
b111101110001 R
b111101110001 i
b1110001 #
b1110001 9
b1110001 N
b1110001 V
b1110001 [
b10000 *
b10000 H
b10000 K
b10000 Q
b10000 S
b10000 \
1,
#290
0,
#295
b1111 !
b1111 3
b1111 f
b1111 h
b1111 k
b1111 o
b1111 w
b1111 y
b1111 {
1C
0A
0@
b0 8
b0 l
b0 p
1=
0;
b1000000001000 7
b1000000001000 ^
b1000000001000 b
b1111 )
b1111 G
b1111 n
b1111 r
b1111 u
1e
1L
b100000 `
b100000 a
0$
1,
#300
0,
#305
b1111 J
b1111 m
b1111 q
b1111 t
b1111 z
1D
16
b1111 s
b1111 !
b1111 3
b1111 f
b1111 h
b1111 k
b1111 o
b1111 w
b1111 y
b1111 {
1C
0A
0@
b0 8
b0 l
b0 p
1=
0;
b1000000111000 7
b1000000111000 ^
b1000000111000 b
b111 &
b111 B
b111 P
b111 U
b111 Z
b111 ]
b1 %
b1 :
b1 O
b1 T
b1 X
b1 v
0e
0L
b1 Y
b111001 `
b111001 a
1$
b100010001 (
b100010001 F
b100010001 M
b100010001 R
b100010001 i
b10001 #
b10001 9
b10001 N
b10001 V
b10001 [
b10001 *
b10001 H
b10001 K
b10001 Q
b10001 S
b10001 \
1,
#310
0,
#315
0D
06
b1000000001000 7
b1000000001000 ^
b1000000001000 b
b100 Y
b1010 W
1e
1L
b101001010 (
b101001010 F
b101001010 M
b101001010 R
b101001010 i
b1001010 #
b1001010 9
b1001010 N
b1001010 V
b1001010 [
b10010 *
b10010 H
b10010 K
b10010 Q
b10010 S
b10010 \
b111000 `
b111000 a
0$
1,
#320
0,
#325
b1010 J
b1010 m
b1010 q
b1010 t
b1010 z
b1010 s
b1010 !
b1010 3
b1010 f
b1010 h
b1010 k
b1010 o
b1010 w
b1010 y
b1010 {
0C
1A
1@
b10 8
b10 l
b10 p
0=
1;
0D
06
b11010000010 7
b11010000010 ^
b11010000010 b
b100 &
b100 B
b100 P
b100 U
b100 Z
b100 ]
b1010 %
b1010 :
b1010 O
b1010 T
b1010 X
b1010 v
0e
0L
b111 Y
b10 W
b100001 `
b100001 a
1$
b101001110010 (
b101001110010 F
b101001110010 M
b101001110010 R
b101001110010 i
b1110010 #
b1110010 9
b1110010 N
b1110010 V
b1110010 [
b10011 *
b10011 H
b10011 K
b10011 Q
b10011 S
b10011 \
1,
#330
0,
#335
b1010 !
b1010 3
b1010 f
b1010 h
b1010 k
b1010 o
b1010 w
b1010 y
b1010 {
1C
0A
0@
b0 8
b0 l
b0 p
1=
0;
b1000000001000 7
b1000000001000 ^
b1000000001000 b
b1010 )
b1010 G
b1010 n
b1010 r
b1010 u
1e
1L
b100000 `
b100000 a
0$
1,
#340
0,
#345
b1010 J
b1010 m
b1010 q
b1010 t
b1010 z
1D
16
b1010 s
b1010 !
b1010 3
b1010 f
b1010 h
b1010 k
b1010 o
b1010 w
b1010 y
b1010 {
1C
0A
0@
b0 8
b0 l
b0 p
1=
0;
b1000000111000 7
b1000000111000 ^
b1000000111000 b
b111 &
b111 B
b111 P
b111 U
b111 Z
b111 ]
b10 %
b10 :
b10 O
b10 T
b10 X
b10 v
0e
0L
b10 Y
b111001 `
b111001 a
1$
b1000100010 (
b1000100010 F
b1000100010 M
b1000100010 R
b1000100010 i
b100010 #
b100010 9
b100010 N
b100010 V
b100010 [
b10100 *
b10100 H
b10100 K
b10100 Q
b10100 S
b10100 \
1,
#350
0,
#355
0D
06
b1000000001000 7
b1000000001000 ^
b1000000001000 b
b100 Y
b1 W
1e
1L
b1001000001 (
b1001000001 F
b1001000001 M
b1001000001 R
b1001000001 i
b1000001 #
b1000001 9
b1000001 N
b1000001 V
b1000001 [
b10101 *
b10101 H
b10101 K
b10101 Q
b10101 S
b10101 \
b111000 `
b111000 a
0$
1,
#360
0,
#365
b1 J
b1 m
b1 q
b1 t
b1 z
b1 s
b1 !
b1 3
b1 f
b1 h
b1 k
b1 o
b1 w
b1 y
b1 {
0C
1A
1@
b10 8
b10 l
b10 p
0=
1;
0D
06
b11010000010 7
b11010000010 ^
b11010000010 b
b100 &
b100 B
b100 P
b100 U
b100 Z
b100 ]
b1 %
b1 :
b1 O
b1 T
b1 X
b1 v
0e
0L
b111 Y
b11 W
b100001 `
b100001 a
1$
b101110011 (
b101110011 F
b101110011 M
b101110011 R
b101110011 i
b1110011 #
b1110011 9
b1110011 N
b1110011 V
b1110011 [
b10110 *
b10110 H
b10110 K
b10110 Q
b10110 S
b10110 \
1,
#370
0,
#375
b1 !
b1 3
b1 f
b1 h
b1 k
b1 o
b1 w
b1 y
b1 {
1C
0A
0@
b0 8
b0 l
b0 p
1=
0;
b1000000001000 7
b1000000001000 ^
b1000000001000 b
b1 )
b1 G
b1 n
b1 r
b1 u
1e
1L
b100000 `
b100000 a
0$
1,
#380
0,
#385
b1 J
b1 m
b1 q
b1 t
b1 z
1D
16
b1 s
b1 !
b1 3
b1 f
b1 h
b1 k
b1 o
b1 w
b1 y
b1 {
1C
0A
0@
b0 8
b0 l
b0 p
1=
0;
b1000000111000 7
b1000000111000 ^
b1000000111000 b
b111 &
b111 B
b111 P
b111 U
b111 Z
b111 ]
b11 %
b11 :
b11 O
b11 T
b11 X
b11 v
0e
0L
b11 Y
b111001 `
b111001 a
1$
b1100110011 (
b1100110011 F
b1100110011 M
b1100110011 R
b1100110011 i
b110011 #
b110011 9
b110011 N
b110011 V
b110011 [
b10111 *
b10111 H
b10111 K
b10111 Q
b10111 S
b10111 \
1,
#390
0,
#395
0D
06
b1000000001000 7
b1000000001000 ^
b1000000001000 b
b110 Y
b0 W
1e
1L
b1101100000 (
b1101100000 F
b1101100000 M
b1101100000 R
b1101100000 i
b1100000 #
b1100000 9
b1100000 N
b1100000 V
b1100000 [
b11000 *
b11000 H
b11000 K
b11000 Q
b11000 S
b11000 \
b111000 `
b111000 a
0$
1,
#400
0,
#405
b1 s
b1 j
b1 !
b1 3
b1 f
b1 h
b1 k
b1 o
b1 w
b1 y
b1 {
1A
1@
b10 8
b10 l
b10 p
0=
1D
06
b1011010100000 7
b1011010100000 ^
b1011010100000 b
b110 &
b110 B
b110 P
b110 U
b110 Z
b110 ]
b0 %
b0 :
b0 O
b0 T
b0 X
b0 v
0e
0L
b0 Y
b110001 `
b110001 a
1$
b0 (
b0 F
b0 M
b0 R
b0 i
b0 #
b0 9
b0 N
b0 V
b0 [
b11001 *
b11001 H
b11001 K
b11001 Q
b11001 S
b11001 \
1,
#410
0,
#415
05
b1 J
b1 m
b1 q
b1 t
b1 z
0A
0@
b0 8
b0 l
b0 p
0D
1=
b1 s
b1000000001000 7
b1000000001000 ^
b1000000001000 b
b1 !
b1 3
b1 f
b1 h
b1 k
b1 o
b1 w
b1 y
b1 {
b110 Y
b1 W
bx j
1e
1L
b1100001 (
b1100001 F
b1100001 M
b1100001 R
b1100001 i
b1100001 #
b1100001 9
b1100001 N
b1100001 V
b1100001 [
b11010 *
b11010 H
b11010 K
b11010 Q
b11010 S
b11010 \
b110000 `
b110000 a
0$
1,
#420
0,
